ACA/Proj1/Encoder/simulation/qsim/Encoder.msim.vcd
$comment
	File created using the following command:
		vcd file Encoder.msim.vcd -direction
$end
$date
	Sat Nov 16 02:06:06 2019
$end
$version
	ModelSim Version 10.5b
$end
$timescale
	1ps
$end

$scope module had_encoder_parallel_vhd_vec_tst $end
$var wire 1 ! code [7] $end
$var wire 1 " code [6] $end
$var wire 1 # code [5] $end
$var wire 1 $ code [4] $end
$var wire 1 % code [3] $end
$var wire 1 & code [2] $end
$var wire 1 ' code [1] $end
$var wire 1 ( code [0] $end
$var wire 1 ) m [3] $end
$var wire 1 * m [2] $end
$var wire 1 + m [1] $end
$var wire 1 , m [0] $end

$scope module i1 $end
$var wire 1 - gnd $end
$var wire 1 . vcc $end
$var wire 1 / unknown $end
$var wire 1 0 devoe $end
$var wire 1 1 devclrn $end
$var wire 1 2 devpor $end
$var wire 1 3 ww_devoe $end
$var wire 1 4 ww_devclrn $end
$var wire 1 5 ww_devpor $end
$var wire 1 6 ww_m [3] $end
$var wire 1 7 ww_m [2] $end
$var wire 1 8 ww_m [1] $end
$var wire 1 9 ww_m [0] $end
$var wire 1 : ww_code [7] $end
$var wire 1 ; ww_code [6] $end
$var wire 1 < ww_code [5] $end
$var wire 1 = ww_code [4] $end
$var wire 1 > ww_code [3] $end
$var wire 1 ? ww_code [2] $end
$var wire 1 @ ww_code [1] $end
$var wire 1 A ww_code [0] $end
$var wire 1 B \~QUARTUS_CREATED_GND~I_combout\ $end
$var wire 1 C \m[1]~input_o\ $end
$var wire 1 D \m[2]~input_o\ $end
$var wire 1 E \m[0]~input_o\ $end
$var wire 1 F \m[3]~input_o\ $end
$var wire 1 G \code7|y~combout\ $end
$var wire 1 H \code6|y~combout\ $end
$var wire 1 I \code5|y~0_combout\ $end
$var wire 1 J \code4|y~combout\ $end
$var wire 1 K \code3|y~combout\ $end
$var wire 1 L \m1m3|y~combout\ $end
$var wire 1 M \m0m3|y~combout\ $end
$var wire 1 N \ALT_INV_m[3]~input_o\ $end
$var wire 1 O \ALT_INV_m[0]~input_o\ $end
$var wire 1 P \ALT_INV_m[1]~input_o\ $end
$var wire 1 Q \ALT_INV_m[2]~input_o\ $end
$upscope $end
$upscope $end
$enddefinitions $end
#0
$dumpvars
0-
1.
x/
10
11
12
13
14
15
xB
0C
0D
0E
0F
0G
0H
0I
0J
0K
0L
0M
1N
1O
1P
1Q
0)
0*
0+
0,
0!
0"
0#
0$
0%
0&
0'
0(
06
07
08
09
0:
0;
0<
0=
0>
0?
0@
0A
$end
#62500
1,
19
1E
0O
1G
1H
1I
1J
1K
1L
1M
1:
1!
1;
1<
1=
1>
1?
1@
1A
1(
1'
1&
1%
1$
1#
1"
#125000
0,
1+
09
18
1C
0E
1O
0P
0K
0L
0M
0:
0!
0;
0<
0=
0$
0#
0"
#187500
1,
19
1E
0O
0G
0H
0I
0J
1K
1L
1M
1:
1!
1;
1<
1=
0>
0?
0@
0A
0(
0'
0&
0%
1$
1#
1"
#250000
0,
0+
1*
09
08
17
1D
0C
0E
1O
1P
0Q
1G
1H
0M
0:
0!
0;
1@
1A
1(
1'
0"
#312500
1,
19
1E
0O
0G
0H
1I
1J
0K
0L
1M
1:
1!
1;
0<
0=
1>
1?
0@
0A
0(
0'
1&
1%
0$
0#
1"
#375000
0,
1+
09
18
1C
0E
1O
0P
1K
1L
0M
0:
0!
0;
1<
1=
1$
1#
0"
#437500
1,
19
1E
0O
1G
1H
0I
0J
0K
0L
1M
1:
1!
1;
0<
0=
0>
0?
1@
1A
1(
1'
0&
0%
0$
0#
1"
#500000
0,
0+
0*
1)
09
08
07
16
1F
0D
0C
0E
1O
1P
1Q
0N
0H
1I
1K
0:
0!
1=
1?
0@
0'
1&
1$
#562500
1,
19
1E
0O
0G
1H
0I
1J
0K
1L
0M
1:
1!
0;
1<
0=
1>
0?
1@
0A
0(
1'
0&
1%
0$
1#
0"
#625000
0,
1+
09
18
1C
0E
1O
0P
1K
0L
1M
0:
0!
1;
0<
1=
1$
0#
1"
#687500
1,
19
1E
0O
1G
0H
1I
0J
0K
1L
0M
1:
1!
0;
1<
0=
0>
1?
0@
1A
1(
0'
1&
0%
0$
1#
0"
#750000
0,
0+
1*
09
08
17
1D
0C
0E
1O
1P
0Q
0G
1H
1M
0:
0!
1;
1@
0A
0(
1'
1"
#812500
1,
19
1E
0O
1G
0H
0I
1J
1K
0L
0M
1:
1!
0;
0<
1=
1>
0?
0@
1A
1(
0'
0&
1%
1$
0#
0"
#875000
0,
1+
09
18
1C
0E
1O
0P
0K
1L
1M
0:
0!
1;
1<
0=
0$
1#
1"
#937500
1,
19
1E
0O
0G
1H
1I
0J
1K
0L
0M
1:
1!
0;
0<
1=
0>
1?
1@
0A
0(
1'
1&
0%
1$
0#
0"
