ACA/A6/PC_32_Serie/simulation/qsim/PC_32_Serie.msim.vcd
$comment
	File created using the following command:
		vcd file PC_32_Serie.msim.vcd -direction
$end
$date
	Mon Nov 11 21:10:35 2019
$end
$version
	ModelSim Version 10.5b
$end
$timescale
	1ps
$end

$scope module popcounter_32bitserial_vhd_vec_tst $end
$var wire 1 ! clk $end
$var wire 1 " cnt [5] $end
$var wire 1 # cnt [4] $end
$var wire 1 $ cnt [3] $end
$var wire 1 % cnt [2] $end
$var wire 1 & cnt [1] $end
$var wire 1 ' cnt [0] $end
$var wire 1 ( dIn $end
$var wire 1 ) nGRst $end

$scope module i1 $end
$var wire 1 * gnd $end
$var wire 1 + vcc $end
$var wire 1 , unknown $end
$var wire 1 - devoe $end
$var wire 1 . devclrn $end
$var wire 1 / devpor $end
$var wire 1 0 ww_devoe $end
$var wire 1 1 ww_devclrn $end
$var wire 1 2 ww_devpor $end
$var wire 1 3 ww_nGRst $end
$var wire 1 4 ww_clk $end
$var wire 1 5 ww_dIn $end
$var wire 1 6 ww_cnt [5] $end
$var wire 1 7 ww_cnt [4] $end
$var wire 1 8 ww_cnt [3] $end
$var wire 1 9 ww_cnt [2] $end
$var wire 1 : ww_cnt [1] $end
$var wire 1 ; ww_cnt [0] $end
$var wire 1 < \~QUARTUS_CREATED_GND~I_combout\ $end
$var wire 1 = \clk~input_o\ $end
$var wire 1 > \clk~inputCLKENA0_outclk\ $end
$var wire 1 ? \bc|ff0|Q~0_combout\ $end
$var wire 1 @ \bc|ff1|Q~0_combout\ $end
$var wire 1 A \bc|ff1|Q~q\ $end
$var wire 1 B \bc|ff2|Q~0_combout\ $end
$var wire 1 C \bc|ff2|Q~q\ $end
$var wire 1 D \bc|ff3|Q~0_combout\ $end
$var wire 1 E \bc|ff3|Q~q\ $end
$var wire 1 F \bc|ff4|Q~0_combout\ $end
$var wire 1 G \bc|ff4|Q~q\ $end
$var wire 1 H \bc|ff5|Q~0_combout\ $end
$var wire 1 I \bc|ff5|Q~q\ $end
$var wire 1 J \nGRst~input_o\ $end
$var wire 1 K \con|nad4|y~0_combout\ $end
$var wire 1 L \con|nad2|y~0_combout\ $end
$var wire 1 M \bc|ff0|Q~q\ $end
$var wire 1 N \con|nord|y~0_combout\ $end
$var wire 1 O \pr5|ff0|Q~q\ $end
$var wire 1 P \dIn~input_o\ $end
$var wire 1 Q \ff|Q~q\ $end
$var wire 1 R \hd|hA40|hA30|hA20|hA0|s~combout\ $end
$var wire 1 S \pr6|ff0|Q~0_combout\ $end
$var wire 1 T \con|nad4|y~1_combout\ $end
$var wire 1 U \pr6|ff0|Q~q\ $end
$var wire 1 V \pr5|ff1|Q~q\ $end
$var wire 1 W \pr5|ff0|Q~DUPLICATE_q\ $end
$var wire 1 X \hd|hA40|hA30|hA20|hA1|s~combout\ $end
$var wire 1 Y \pr6|ff1|Q~0_combout\ $end
$var wire 1 Z \pr6|ff1|Q~q\ $end
$var wire 1 [ \pr5|ff2|Q~q\ $end
$var wire 1 \ \hd|hA40|hA30|hA11|s~combout\ $end
$var wire 1 ] \pr6|ff2|Q~0_combout\ $end
$var wire 1 ^ \pr6|ff2|Q~q\ $end
$var wire 1 _ \pr5|ff3|Q~q\ $end
$var wire 1 ` \hd|hA40|hA11|s~combout\ $end
$var wire 1 a \pr6|ff3|Q~0_combout\ $end
$var wire 1 b \pr6|ff3|Q~q\ $end
$var wire 1 c \pr5|ff4|Q~q\ $end
$var wire 1 d \hd|hA11|s~combout\ $end
$var wire 1 e \pr6|ff4|Q~0_combout\ $end
$var wire 1 f \pr6|ff4|Q~q\ $end
$var wire 1 g \hd|hA11|cOut~combout\ $end
$var wire 1 h \pr6|ff5|Q~q\ $end
$var wire 1 i \pr5|ff0|ALT_INV_Q~DUPLICATE_q\ $end
$var wire 1 j \ALT_INV_nGRst~input_o\ $end
$var wire 1 k \ALT_INV_clk~input_o\ $end
$var wire 1 l \con|nad2|ALT_INV_y~0_combout\ $end
$var wire 1 m \hd|hA11|ALT_INV_s~combout\ $end
$var wire 1 n \pr5|ff4|ALT_INV_Q~q\ $end
$var wire 1 o \hd|hA40|hA11|ALT_INV_s~combout\ $end
$var wire 1 p \pr5|ff3|ALT_INV_Q~q\ $end
$var wire 1 q \hd|hA40|hA30|hA11|ALT_INV_s~combout\ $end
$var wire 1 r \pr5|ff2|ALT_INV_Q~q\ $end
$var wire 1 s \hd|hA40|hA30|hA20|hA1|ALT_INV_s~combout\ $end
$var wire 1 t \pr5|ff1|ALT_INV_Q~q\ $end
$var wire 1 u \con|nad4|ALT_INV_y~1_combout\ $end
$var wire 1 v \bc|ff0|ALT_INV_Q~q\ $end
$var wire 1 w \bc|ff5|ALT_INV_Q~q\ $end
$var wire 1 x \con|nad4|ALT_INV_y~0_combout\ $end
$var wire 1 y \bc|ff2|ALT_INV_Q~q\ $end
$var wire 1 z \bc|ff1|ALT_INV_Q~q\ $end
$var wire 1 { \bc|ff3|ALT_INV_Q~q\ $end
$var wire 1 | \bc|ff4|ALT_INV_Q~q\ $end
$var wire 1 } \hd|hA40|hA30|hA20|hA0|ALT_INV_s~combout\ $end
$var wire 1 ~ \pr5|ff0|ALT_INV_Q~q\ $end
$var wire 1 !! \ff|ALT_INV_Q~q\ $end
$var wire 1 "! \pr6|ff5|ALT_INV_Q~q\ $end
$var wire 1 #! \pr6|ff4|ALT_INV_Q~q\ $end
$var wire 1 $! \pr6|ff3|ALT_INV_Q~q\ $end
$var wire 1 %! \pr6|ff2|ALT_INV_Q~q\ $end
$var wire 1 &! \pr6|ff1|ALT_INV_Q~q\ $end
$var wire 1 '! \pr6|ff0|ALT_INV_Q~q\ $end
$upscope $end
$upscope $end
$enddefinitions $end
#0
$dumpvars
0!
0(
1)
0*
1+
x,
1-
1.
1/
10
11
12
13
04
05
x<
0=
0>
1?
0@
0A
0B
0C
0D
0E
0F
0G
0H
0I
1J
1K
0L
0M
0N
0O
0P
0Q
0R
1S
0T
0U
0V
0W
0X
1Y
0Z
0[
0\
1]
0^
0_
0`
1a
0b
0c
0d
1e
0f
1g
0h
1i
0j
1k
1l
1m
1n
1o
1p
1q
1r
1s
1t
1u
1v
1w
0x
1y
1z
1{
1|
1}
1~
1!!
1"!
1#!
1$!
1%!
1&!
1'!
16
17
18
19
1:
1;
1"
1#
1$
1%
1&
1'
$end
#15000
1!
1(
14
15
1P
1=
1>
0k
1M
1Q
0!!
0v
0?
1@
1T
1R
0}
0u
0S
#30000
0!
0(
04
05
0P
0=
0>
1k
0T
1u
#45000
1!
1(
14
15
1P
1=
1>
0k
1T
1A
0M
1O
1W
0i
0~
1v
0z
0u
0K
1?
0T
0R
1X
0s
1}
1u
1x
1S
0Y
#60000
0!
0(
04
05
0P
0=
0>
1k
#75000
1!
1(
14
15
1P
1=
1>
0k
1M
0O
1V
0W
1i
0t
1~
0v
0?
0@
1B
1R
0}
0S
#90000
0!
0(
04
05
0P
0=
0>
1k
#105000
1!
1(
14
15
1P
1=
1>
0k
0A
1C
0M
1O
1W
0i
0~
1v
0y
1z
1?
0R
1\
0X
1s
0q
1}
1S
0]
1Y
#120000
0!
0(
04
05
0P
0=
0>
1k
#135000
1!
1(
14
15
1P
1=
1>
0k
1M
0O
0V
0W
1[
0r
1i
1t
1~
0v
0?
1@
1R
0}
0S
#150000
0!
0(
04
05
0P
0=
0>
1k
#165000
1!
1(
14
15
1P
1=
1>
0k
1A
0M
1O
1W
0i
0~
1v
0z
1?
0R
1X
0s
1}
1S
0Y
#180000
0!
0(
04
05
0P
0=
0>
1k
#195000
1!
1(
14
15
1P
1=
1>
0k
1M
0O
1V
0W
1i
0t
1~
0v
0?
0@
0B
1D
1R
0}
0S
#210000
0!
0(
04
05
0P
0=
0>
1k
#225000
1!
1(
14
15
1P
1=
1>
0k
0A
0C
1E
0M
1O
1W
0i
0~
1v
0{
1y
1z
1?
0R
0\
1`
0X
1s
0o
1q
1}
1S
1]
0a
1Y
#240000
0!
0(
04
05
0P
0=
0>
1k
#255000
1!
1(
14
15
1P
1=
1>
0k
1M
0O
0V
0W
0[
1_
0p
1r
1i
1t
1~
0v
0?
1@
1R
0}
0S
#270000
0!
0(
04
05
0P
0=
0>
1k
#285000
1!
1(
14
15
1P
1=
1>
0k
1A
0M
1O
1W
0i
0~
1v
0z
1?
0R
1X
0s
1}
1S
0Y
#300000
0!
0(
04
05
0P
0=
0>
1k
#315000
1!
1(
14
15
1P
1=
1>
0k
1M
0O
1V
0W
1i
0t
1~
0v
0?
0@
1B
1R
0}
0S
#330000
0!
0(
04
05
0P
0=
0>
1k
#345000
1!
1(
14
15
1P
1=
1>
0k
0A
1C
0M
1O
1W
0i
0~
1v
0y
1z
1?
0R
1\
0X
1s
0q
1}
1S
0]
1Y
#360000
0!
0(
04
05
0P
0=
0>
1k
#375000
1!
1(
14
15
1P
1=
1>
0k
1M
0O
0V
0W
1[
0r
1i
1t
1~
0v
0?
1@
1R
0}
0S
#390000
0!
0(
04
05
0P
0=
0>
1k
#405000
1!
1(
14
15
1P
1=
1>
0k
1A
0M
1O
1W
0i
0~
1v
0z
1?
0R
1X
0s
1}
1S
0Y
#420000
0!
0(
04
05
0P
0=
0>
1k
#435000
1!
1(
14
15
1P
1=
1>
0k
1M
0O
1V
0W
1i
0t
1~
0v
0?
0@
0B
0D
1F
1R
0}
0S
#450000
0!
0(
04
05
0P
0=
0>
1k
#465000
1!
1(
14
15
1P
1=
1>
0k
0A
0C
0E
1G
0M
1O
1W
0i
0~
1v
0|
1{
1y
1z
1?
0R
0\
0`
1d
0X
1s
0m
1o
1q
1}
1S
1]
1a
0e
1Y
#480000
0!
0(
04
05
0P
0=
0>
1k
#495000
1!
1(
14
15
1P
1=
1>
0k
1M
0O
0V
0W
0[
0_
1c
0n
1p
1r
1i
1t
1~
0v
0?
1@
1R
0}
0S
#510000
0!
0(
04
05
0P
0=
0>
1k
#525000
1!
1(
14
15
1P
1=
1>
0k
1A
0M
1O
1W
0i
0~
1v
0z
1?
0R
1X
0s
1}
1S
0Y
#540000
0!
0(
04
05
0P
0=
0>
1k
#555000
1!
1(
14
15
1P
1=
1>
0k
1M
0O
1V
0W
1i
0t
1~
0v
0?
0@
1B
1R
0}
0S
#570000
0!
0(
04
05
0P
0=
0>
1k
#585000
1!
1(
14
15
1P
1=
1>
0k
0A
1C
0M
1O
1W
0i
0~
1v
0y
1z
1?
0R
1\
0X
1s
0q
1}
1S
0]
1Y
#600000
0!
0(
04
05
0P
0=
0>
1k
#615000
1!
1(
14
15
1P
1=
1>
0k
1M
0O
0V
0W
1[
0r
1i
1t
1~
0v
0?
1@
1R
0}
0S
#630000
0!
0(
04
05
0P
0=
0>
1k
#645000
1!
1(
14
15
1P
1=
1>
0k
1A
0M
1O
1W
0i
0~
1v
0z
1?
0R
1X
0s
1}
1S
0Y
#660000
0!
0(
04
05
0P
0=
0>
1k
#675000
1!
1(
14
15
1P
1=
1>
0k
1M
0O
1V
0W
1i
0t
1~
0v
0?
0@
0B
1D
1R
0}
0S
#690000
0!
0(
04
05
0P
0=
0>
1k
#705000
1!
1(
14
15
1P
1=
1>
0k
0A
0C
1E
0M
1O
1W
0i
0~
1v
0{
1y
1z
1?
0R
0\
1`
0X
1s
0o
1q
1}
1S
1]
0a
1Y
#720000
0!
0(
04
05
0P
0=
0>
1k
#735000
1!
1(
14
15
1P
1=
1>
0k
1M
0O
0V
0W
0[
1_
0p
1r
1i
1t
1~
0v
0?
1@
1R
0}
0S
#750000
0!
0(
04
05
0P
0=
0>
1k
#765000
1!
1(
14
15
1P
1=
1>
0k
1A
0M
1O
1W
0i
0~
1v
0z
1?
0R
1X
0s
1}
1S
0Y
#780000
0!
0(
04
05
0P
0=
0>
1k
#795000
1!
1(
14
15
1P
1=
1>
0k
1M
0O
1V
0W
1i
0t
1~
0v
0?
0@
1B
1R
0}
0S
#810000
0!
0(
04
05
0P
0=
0>
1k
#825000
1!
1(
14
15
1P
1=
1>
0k
0A
1C
0M
1O
1W
0i
0~
1v
0y
1z
1?
0R
1\
0X
1s
0q
1}
1S
0]
1Y
#840000
0!
0(
04
05
0P
0=
0>
1k
#855000
1!
1(
14
15
1P
1=
1>
0k
1M
0O
0V
0W
1[
0r
1i
1t
1~
0v
0?
1@
1R
0}
0S
#870000
0!
0(
04
05
0P
0=
0>
1k
#885000
1!
1(
14
15
1P
1=
1>
0k
1A
0M
1O
1W
0i
0~
1v
0z
1?
0R
1X
0s
1}
1S
0Y
#900000
0!
0(
04
05
0P
0=
0>
1k
#915000
1!
1(
14
15
1P
1=
1>
0k
1M
0O
1V
0W
1i
0t
1~
0v
0?
0@
0B
0D
0F
1H
1R
0}
0S
#930000
0!
0(
04
05
0P
0=
0>
1k
#945000
1!
1(
14
15
1P
1=
1>
0k
0A
0C
0E
0G
1I
0M
1O
1W
0i
0~
1v
0w
1|
1{
1y
1z
1K
1?
0R
0\
0`
0d
0X
0g
1s
1m
1o
1q
1}
0x
1S
1]
1a
1e
1Y
#960000
0!
0(
04
05
0P
0=
0>
1k
1N
1U
1Z
1^
1b
1f
0#!
0$!
0%!
0&!
0'!
0;
0:
09
08
07
0'
0&
0%
0$
0#
#975000
1!
1(
14
15
1P
1=
1>
0k
0N
1M
0O
0V
0W
0[
0_
0c
1n
1p
1r
1i
1t
1~
0v
0?
1@
1L
1R
1g
0}
0l
0I
0M
0Q
0S
1!!
1v
1w
1?
0@
0H
0L
0R
1}
1l
1S
#990000
0!
0(
04
05
0P
0=
0>
1k
